Environment size: 4364/6140 bytes
u-boot=> tftpboot ${loadaddr} boot/pico-image; tftpboot ${fdt_addr} boot/fdtdir/picopi/imx8mq-pico-pi.dtb; booti ${loadaddr} - ${fdt_addr}                        
*** ERROR: `ipaddr' not set
*** ERROR: `ipaddr' not set
Bad Linux ARM64 Image magic!
u-boot=> ipaddr=10.42.0.2
u-boot=> tftpboot ${loadaddr} boot/pico-image; tftpboot ${fdt_addr} boot/fdtdir/picopi/imx8mq-pico-pi.dtb; booti ${loadaddr} - ${fdt_addr}
*** ERROR: `ipaddr' not set
*** ERROR: `ipaddr' not set
Bad Linux ARM64 Image magic!
u-boot=> tftpboot ${loadaddr} boot/pico-image; tftpboot ${fdt_addr} boot/fdtdir/picopi/imx8mq-pico-pi.dtb; booti ${loadaddr} - ${fdt_addr}<INTERRUPT>
u-boot=> setenv ipaddr=10.42.0.2
## Error: illegal character '='in variable name "ipaddr=10.42.0.2"
u-boot=> setenv ipaddr 10.42.0.2
u-boot=> tftpboot ${loadaddr} boot/pico-image; tftpboot ${fdt_addr} boot/fdtdir/picopi/imx8mq-pico-pi.dtb; booti ${loadaddr} - ${fdt_addr}
Using ethernet@30be0000 device
TFTP from server 192.168.0.254; our IP address is 10.42.0.2
Filename 'boot/pico-image'.
Load address: 0x40480000
Loading: *
ARP Retry count exceeded; starting again
Using ethernet@30be0000 device
TFTP from server 192.168.0.254; our IP address is 10.42.0.2
Filename 'boot/fdtdir/picopi/imx8mq-pico-pi.dtb'.
Load address: 0x40460000
Loading: *
Abort
Bad Linux ARM64 Image magic!
u-boot=> <INTERRUPT>
u-boot=> setenv serverip 10.42.0.1                                                                                                        
u-boot=> tftpboot ${loadaddr} boot/pico-image; tftpboot ${fdt_addr} boot/fdtdir/picopi/imx8mq-pico-pi.dtb; booti ${loadaddr} - ${fdt_addr}
Using ethernet@30be0000 device
TFTP from server 10.42.0.1; our IP address is 10.42.0.2
Filename 'boot/pico-image'.
Load address: 0x40480000
Loading: #################################################################
	 #################################################################
	 #################################################################
	 #################################################################
	 #################################################################
	 #################################################################
	 #################################################################
	 #################################################################
	 #################################################################
	 #################################################################
	 #################################################################
	 #################################################################
	 #################################################################
	 #################################################################
	 #################################################################
	 #################################################################
	 #################################################################
	 #################################################################
	 #################################################################
	 #################################################################
	 #################################################################
	 #################################################################
	 #################################################################
	 #################################################################
	 #################################################################
	 #################################################################
	 #################################################################
	 #################################################################
	 #################################################################
	 #################################################################
	 #################################################################
	 #################################################################
	 #################################################################
	 #########################################
	 12.3 MiB/s
done
Bytes transferred = 32084480 (1e99200 hex)
Using ethernet@30be0000 device
TFTP from server 10.42.0.1; our IP address is 10.42.0.2
Filename 'boot/fdtdir/picopi/imx8mq-pico-pi.dtb'.
Load address: 0x40460000
Loading: ###
	 6 MiB/s
done
Bytes transferred = 31232 (7a00 hex)
ERROR: Did not find a cmdline Flattened Device Tree
Could not find a valid device tree
u-boot=> setenv fdt_addr 0x43000000
u-boot=> tftpboot ${loadaddr} boot/pico-image; tftpboot ${fdt_addr} boot/fdtdir/picopi/imx8mq-pico-pi.dtb; booti ${loadaddr} - ${fdt_addr}
Using ethernet@30be0000 device
TFTP from server 10.42.0.1; our IP address is 10.42.0.2
Filename 'boot/pico-image'.
Load address: 0x40480000
Loading: #################################################################
	 #################################################################
	 #################################################################
	 #################################################################
	 #################################################################
	 #################################################################
	 #################################################################
	 #################################################################
	 #################################################################
	 #################################################################
	 #################################################################
	 #################################################################
	 #################################################################
	 #################################################################
	 #################################################################
	 #################################################################
	 #################################################################
	 #################################################################
	 #################################################################
	 #################################################################
	 #################################################################
	 #################################################################
	 #################################################################
	 #################################################################
	 #################################################################
	 #################################################################
	 #################################################################
	 #################################################################
	 #################################################################
	 #################################################################
	 #################################################################
	 #################################################################
	 #################################################################
	 #########################################
	 12.1 MiB/s
done
Bytes transferred = 32084480 (1e99200 hex)
Using ethernet@30be0000 device
TFTP from server 10.42.0.1; our IP address is 10.42.0.2
Filename 'boot/fdtdir/picopi/imx8mq-pico-pi.dtb'.
Load address: 0x43000000
Loading: ###
	 6 MiB/s
done
Bytes transferred = 31232 (7a00 hex)
## Flattened Device Tree blob at 43000000
   Booting using the fdt blob at 0x43000000
   Loading Device Tree to 000000007e6fb000, end 000000007e7059ff ... OK

Starting kernel ...

[    0.000000] Booting Linux on physical CPU 0x0000000000 [0x410fd034]
[    0.000000] Linux version 5.12.0-rc2-12195-g1cb3ff130f4d (dafna@guri) (aarch64-linux-gnu-gcc (Ubuntu/Linaro 7.5.0-3ubuntu1~18.04) 7.5.0, GNU ld (GNU Binutils for Ubuntu) 2.30) #1 SMP PREEMPT Sun Mar 21 21:05:33 CET 2021
[    0.000000] Machine model: TechNexion PICO-PI-8M
[    0.000000] efi: UEFI not found.
[    0.000000] NUMA: No NUMA configuration found
[    0.000000] NUMA: Faking a node at [mem 0x0000000040000000-0x000000007fffffff]
[    0.000000] NUMA: NODE_DATA [mem 0x7fdd5c00-0x7fdd7fff]
[    0.000000] Zone ranges:
[    0.000000]   DMA      [mem 0x0000000040000000-0x000000007fffffff]
[    0.000000]   DMA32    empty
[    0.000000]   Normal   empty
[    0.000000] Movable zone start for each node
[    0.000000] Early memory node ranges
[    0.000000]   node   0: [mem 0x0000000040000000-0x000000007fffffff]
[    0.000000] Initmem setup node 0 [mem 0x0000000040000000-0x000000007fffffff]
[    0.000000] cma: Reserved 32 MiB at 0x000000007c400000
[    0.000000] psci: probing for conduit method from DT.
[    0.000000] psci: PSCIv1.0 detected in firmware.
[    0.000000] psci: Using standard PSCI v0.2 function IDs
[    0.000000] psci: MIGRATE_INFO_TYPE not supported.
[    0.000000] psci: SMC Calling Convention v1.0
[    0.000000] percpu: Embedded 23 pages/cpu s56856 r8192 d29160 u94208
[    0.000000] Detected VIPT I-cache on CPU0
[    0.000000] CPU features: detected: ARM erratum 845719
[    0.000000] CPU features: detected: GIC system register CPU interface
[    0.000000] Built 1 zonelists, mobility grouping on.  Total pages: 258048
[    0.000000] Policy zone: DMA
[    0.000000] Kernel command line: 
[    0.000000] Dentry cache hash table entries: 131072 (order: 8, 1048576 bytes, linear)
[    0.000000] Inode-cache hash table entries: 65536 (order: 7, 524288 bytes, linear)
[    0.000000] mem auto-init: stack:off, heap alloc:off, heap free:off
[    0.000000] Memory: 963404K/1048576K available (14656K kernel code, 2916K rwdata, 7820K rodata, 5824K init, 501K bss, 52404K reserved, 32768K cma-reserved)
[    0.000000] SLUB: HWalign=64, Order=0-3, MinObjects=0, CPUs=4, Nodes=1
[    0.000000] rcu: Preemptible hierarchical RCU implementation.
[    0.000000] rcu: 	RCU event tracing is enabled.
[    0.000000] rcu: 	RCU restricting CPUs from NR_CPUS=256 to nr_cpu_ids=4.
[    0.000000] 	Trampoline variant of Tasks RCU enabled.
[    0.000000] rcu: RCU calculated value of scheduler-enlistment delay is 25 jiffies.
[    0.000000] rcu: Adjusting geometry for rcu_fanout_leaf=16, nr_cpu_ids=4
[    0.000000] NR_IRQS: 64, nr_irqs: 64, preallocated irqs: 0
[    0.000000] GICv3: GIC: Using split EOI/Deactivate mode
[    0.000000] GICv3: 128 SPIs implemented
[    0.000000] GICv3: 0 Extended SPIs implemented
[    0.000000] GICv3: Distributor has no Range Selector support
[    0.000000] GICv3: 16 PPIs implemented
[    0.000000] GICv3: CPU0: found redistributor 0 region 0:0x0000000038880000
[    0.000000] ITS: No ITS available, not enabling LPIs
[    0.000000] random: get_random_bytes called from start_kernel+0x350/0x544 with crng_init=0
[    0.000000] arch_timer: cp15 timer(s) running at 8.33MHz (phys).
[    0.000000] clocksource: arch_sys_counter: mask: 0xffffffffffffff max_cycles: 0x1ec0311ec, max_idle_ns: 440795202152 ns
[    0.000000] sched_clock: 56 bits at 8MHz, resolution 120ns, wraps every 2199023255541ns
[    0.001184] Console: colour dummy device 80x25
[    0.001757] printk: console [tty0] enabled
[    0.001856] Calibrating delay loop (skipped), value calculated using timer frequency.. 16.66 BogoMIPS (lpj=33333)
[    0.001892] pid_max: default: 32768 minimum: 301
[    0.001997] LSM: Security Framework initializing
[    0.002076] Mount-cache hash table entries: 2048 (order: 2, 16384 bytes, linear)
[    0.002110] Mountpoint-cache hash table entries: 2048 (order: 2, 16384 bytes, linear)
[    0.003935] rcu: Hierarchical SRCU implementation.
[    0.006736] EFI services will not be available.
[    0.006985] smp: Bringing up secondary CPUs ...
[    0.007532] Detected VIPT I-cache on CPU1
[    0.007575] GICv3: CPU1: found redistributor 1 region 0:0x00000000388a0000
[    0.007639] CPU1: Booted secondary processor 0x0000000001 [0x410fd034]
[    0.008257] Detected VIPT I-cache on CPU2
[    0.008288] GICv3: CPU2: found redistributor 2 region 0:0x00000000388c0000
[    0.008338] CPU2: Booted secondary processor 0x0000000002 [0x410fd034]
[    0.008926] Detected VIPT I-cache on CPU3
[    0.008958] GICv3: CPU3: found redistributor 3 region 0:0x00000000388e0000
[    0.009008] CPU3: Booted secondary processor 0x0000000003 [0x410fd034]
[    0.009106] smp: Brought up 1 node, 4 CPUs
[    0.009225] SMP: Total of 4 processors activated.
[    0.009243] CPU features: detected: 32-bit EL0 Support
[    0.009261] CPU features: detected: CRC32 instructions
[    0.009280] CPU features: detected: 32-bit EL1 Support
[    0.016609] CPU: All CPU(s) started at EL2
[    0.016656] alternatives: patching kernel code
[    0.018176] devtmpfs: initialized
[    0.024683] KASLR disabled due to lack of seed
[    0.024902] clocksource: jiffies: mask: 0xffffffff max_cycles: 0xffffffff, max_idle_ns: 7645041785100000 ns
[    0.024943] futex hash table entries: 1024 (order: 4, 65536 bytes, linear)
[    0.026360] pinctrl core: initialized pinctrl subsystem
[    0.027550] DMI not present or invalid.
[    0.028283] NET: Registered protocol family 16
[    0.030158] DMA: preallocated 128 KiB GFP_KERNEL pool for atomic allocations
[    0.030311] DMA: preallocated 128 KiB GFP_KERNEL|GFP_DMA pool for atomic allocations
[    0.030494] DMA: preallocated 128 KiB GFP_KERNEL|GFP_DMA32 pool for atomic allocations
[    0.030591] audit: initializing netlink subsys (disabled)
[    0.030781] audit: type=2000 audit(0.028:1): state=initialized audit_enabled=0 res=1
[    0.032192] thermal_sys: Registered thermal governor 'step_wise'
[    0.032200] thermal_sys: Registered thermal governor 'power_allocator'
[    0.032710] cpuidle: using governor menu
[    0.032883] hw-breakpoint: found 6 breakpoint and 4 watchpoint registers.
[    0.033001] ASID allocator initialised with 65536 entries
[    0.034819] Serial: AMBA PL011 UART driver
[    0.044406] debugfs: Directory 'dummy-syscon@30340000' with parent 'regmap' already present!
[    0.044667] imx8mq-pinctrl 30330000.pinctrl: initialized IMX pinctrl driver
[    0.071234] HugeTLB registered 1.00 GiB page size, pre-allocated 0 pages
[    0.071274] HugeTLB registered 32.0 MiB page size, pre-allocated 0 pages
[    0.071295] HugeTLB registered 2.00 MiB page size, pre-allocated 0 pages
[    0.071316] HugeTLB registered 64.0 KiB page size, pre-allocated 0 pages
[    0.072676] cryptd: max_cpu_qlen set to 1000
[    0.075900] ACPI: Interpreter disabled.
[    0.078326] iommu: Default domain type: Translated 
[    0.078621] vgaarb: loaded
[    0.079002] SCSI subsystem initialized
[    0.079422] usbcore: registered new interface driver usbfs
[    0.079485] usbcore: registered new interface driver hub
[    0.079534] usbcore: registered new device driver usb
[    0.080886] pps_core: LinuxPPS API ver. 1 registered
[    0.080907] pps_core: Software ver. 5.3.6 - Copyright 2005-2007 Rodolfo Giometti <giometti@linux.it>
[    0.080944] PTP clock support registered
[    0.081113] EDAC MC: Ver: 3.0.0
[    0.082857] FPGA manager framework
[    0.082984] Advanced Linux Sound Architecture Driver Initialized.
[    0.083881] clocksource: Switched to clocksource arch_sys_counter
[    0.084093] VFS: Disk quotas dquot_6.6.0
[    0.084169] VFS: Dquot-cache hash table entries: 512 (order 0, 4096 bytes)
[    0.084425] pnp: PnP ACPI: disabled
[    0.092282] NET: Registered protocol family 2
[    0.092762] tcp_listen_portaddr_hash hash table entries: 512 (order: 1, 8192 bytes, linear)
[    0.092873] TCP established hash table entries: 8192 (order: 4, 65536 bytes, linear)
[    0.092979] TCP bind hash table entries: 8192 (order: 5, 131072 bytes, linear)
[    0.093144] TCP: Hash tables configured (established 8192 bind 8192)
[    0.093255] UDP hash table entries: 512 (order: 2, 16384 bytes, linear)
[    0.093311] UDP-Lite hash table entries: 512 (order: 2, 16384 bytes, linear)
[    0.093484] NET: Registered protocol family 1
[    0.093909] RPC: Registered named UNIX socket transport module.
[    0.093931] RPC: Registered udp transport module.
[    0.093947] RPC: Registered tcp transport module.
[    0.093963] RPC: Registered tcp NFSv4.1 backchannel transport module.
[    0.093986] PCI: CLS 0 bytes, default 64
[    0.094723] hw perfevents: enabled with armv8_cortex_a53 PMU driver, 7 counters available
[    0.095218] kvm [1]: IPA Size Limit: 40 bits
[    0.096928] kvm [1]: vgic-v2@31020000
[    0.096962] kvm [1]: GIC system register CPU interface enabled
[    0.097080] kvm [1]: vgic interrupt IRQ9
[    0.097253] kvm [1]: Hyp mode initialized successfully
[    0.101377] Initialise system trusted keyrings
[    0.101528] workingset: timestamp_bits=42 max_order=18 bucket_order=0
[    0.109940] squashfs: version 4.0 (2009/01/31) Phillip Lougher
[    0.110735] NFS: Registering the id_resolver key type
[    0.110778] Key type id_resolver registered
[    0.110796] Key type id_legacy registered
[    0.110912] nfs4filelayout_init: NFSv4 File Layout Driver Registering...
[    0.111079] 9p: Installing v9fs 9p2000 file system support
[    0.165488] Key type asymmetric registered
[    0.165510] Asymmetric key parser 'x509' registered
[    0.165559] Block layer SCSI generic (bsg) driver version 0.4 loaded (major 245)
[    0.165585] io scheduler mq-deadline registered
[    0.165602] io scheduler kyber registered
[    0.179984] EINJ: ACPI disabled.
[    0.191351] imx-sdma 302c0000.sdma: Direct firmware load for imx/sdma/sdma-imx7d.bin failed with error -2
[    0.191380] imx-sdma 302c0000.sdma: Falling back to sysfs fallback for: imx/sdma/sdma-imx7d.bin
[    0.201357] debugfs: Directory 'dummy-reset-controller@30390000' with parent 'regmap' already present!
[    0.203971] Serial: 8250/16550 driver, 4 ports, IRQ sharing enabled
[    0.205599] SuperH (H)SCI(F) driver initialized
[    0.206019] 30860000.serial: ttymxc0 at MMIO 0x30860000 (irq = 35, base_baud = 1562500) is a IMX
[    0.206045] imx-uart 30860000.serial: Console IMX rounded baud rate from 114679 to 114700
[    1.119168] printk: console [ttymxc0] enabled
[    1.124018] msm_serial: driver initialized
[    1.133868] loop: module loaded
[    1.137706] megasas: 07.714.04.00-rc1
[    1.144832] libphy: Fixed MDIO Bus: probed
[    1.149709] tun: Universal TUN/TAP device driver, 1.6
[    1.155409] thunder_xcv, ver 1.0
[    1.158671] thunder_bgx, ver 1.0
[    1.161927] nicpf, ver 1.0
[    1.165266] pps pps0: new PPS source ptp0
[    1.170867] libphy: fec_enet_mii_bus: probed
[    1.176347] fec 30be0000.ethernet eth0: registered PHC device 0
[    1.183290] hclge is initializing
[    1.186628] hns3: Hisilicon Ethernet Network Driver for Hip08 Family - version
[    1.193878] hns3: Copyright (c) 2017 Huawei Corporation.
[    1.199222] e1000: Intel(R) PRO/1000 Network Driver
[    1.204123] e1000: Copyright (c) 1999-2006 Intel Corporation.
[    1.209903] e1000e: Intel(R) PRO/1000 Network Driver
[    1.214875] e1000e: Copyright(c) 1999 - 2015 Intel Corporation.
[    1.220829] igb: Intel(R) Gigabit Ethernet Network Driver
[    1.226235] igb: Copyright (c) 2007-2014 Intel Corporation.
[    1.231830] igbvf: Intel(R) Gigabit Virtual Function Network Driver
[    1.238105] igbvf: Copyright (c) 2009 - 2012 Intel Corporation.
[    1.244265] sky2: driver version 1.30
[    1.248753] VFIO - User Level meta-driver version: 0.3
[    1.255492] ehci_hcd: USB 2.0 'Enhanced' Host Controller (EHCI) Driver
[    1.262033] ehci-pci: EHCI PCI platform driver
[    1.266505] ehci-platform: EHCI generic platform driver
[    1.271827] ehci-orion: EHCI orion driver
[    1.275919] ehci-exynos: EHCI Exynos driver
[    1.280167] ohci_hcd: USB 1.1 'Open' Host Controller (OHCI) Driver
[    1.286363] ohci-pci: OHCI PCI platform driver
[    1.290832] ohci-platform: OHCI generic platform driver
[    1.296142] ohci-exynos: OHCI Exynos driver
[    1.300709] usbcore: registered new interface driver usb-storage
[    1.308724] i2c /dev entries driver
[    1.316964] sdhci: Secure Digital Host Controller Interface driver
[    1.323180] sdhci: Copyright(c) Pierre Ossman
[    1.327962] Synopsys Designware Multimedia Card Interface Driver
[    1.334724] sdhci-pltfm: SDHCI platform and OF driver helper
[    1.341742] ledtrig-cpu: registered to indicate activity on CPUs
[    1.348727] usbcore: registered new interface driver usbhid
[    1.354311] usbhid: USB HID core driver
[    1.362123] NET: Registered protocol family 17
[    1.366718] 9pnet: Installing 9P2000 support
[    1.371036] Key type dns_resolver registered
[    1.372078] mmc0: SDHCI controller on 30b40000.mmc [30b40000.mmc] using ADMA
[    1.375461] registered taskstats version 1
[    1.386466] Loading compiled-in X.509 certificates
[    1.440427] mmc0: new HS400 MMC card at address 0001
[    1.445790] mmcblk0: mmc0:0001 TB2916 14.6 GiB 
[    1.450474] mmcblk0boot0: mmc0:0001 TB2916 partition 1 4.00 MiB
[    1.456548] mmcblk0boot1: mmc0:0001 TB2916 partition 2 4.00 MiB
[    1.462575] mmcblk0rpmb: mmc0:0001 TB2916 partition 3 4.00 MiB, chardev (234:0)
[    1.471102]  mmcblk0: p1
[    1.473747] random: fast init done
[    1.481030] ldo5: supplied by buck6
[    1.487851] ldo6: supplied by buck7
[    1.494817] i2c i2c-0: IMX I2C adapter registered
[    1.500290] i2c i2c-1: IMX I2C adapter registered
[    1.505712] imx8mq-usb-phy 381f0040.usb-phy: supply vbus not found, using dummy regulator
[    1.514268] imx8mq-usb-phy 382f0040.usb-phy: supply vbus not found, using dummy regulator
[    1.523776] SoC: i.MX8MQ revision 2.0
[    1.528940] xhci-hcd xhci-hcd.3.auto: xHCI Host Controller
[    1.534452] xhci-hcd xhci-hcd.3.auto: new USB bus registered, assigned bus number 1
[    1.542220] xhci-hcd xhci-hcd.3.auto: hcc params 0x0220fe6c hci version 0x110 quirks 0x0000000000010010
[    1.551669] xhci-hcd xhci-hcd.3.auto: irq 49, io mem 0x38200000
[    1.558103] hub 1-0:1.0: USB hub found
[    1.561879] hub 1-0:1.0: 1 port detected
[    1.565979] xhci-hcd xhci-hcd.3.auto: xHCI Host Controller
[    1.571483] xhci-hcd xhci-hcd.3.auto: new USB bus registered, assigned bus number 2
[    1.579156] xhci-hcd xhci-hcd.3.auto: Host supports USB 3.0 SuperSpeed
[    1.585723] usb usb2: We don't know the algorithms for LPM for this host, disabling LPM.
[    1.594105] hub 2-0:1.0: USB hub found
[    1.597877] hub 2-0:1.0: 1 port detected
[    1.604456] sdhci-esdhc-imx 30b50000.mmc: Got CD GPIO
[    1.609862] input: bd718xx-pwrkey as /devices/platform/soc@0/30800000.bus/30a20000.i2c/i2c-0/0-004b/gpio-keys.0.auto/input/input0
[    1.622325] ALSA device list:
[    1.625305]   No soundcards found.
[    1.640704] mmc1: SDHCI controller on 30b50000.mmc [30b50000.mmc] using ADMA
[    1.648270] VFS: Cannot open root device "(null)" or unknown-block(0,0): error -6
[    1.655766] Please append a correct "root=" boot option; here are the available partitions:
[    1.664144] b300        15310848 mmcblk0 
[    1.664148]  driver: mmcblk
[    1.670959]   b301           48128 mmcblk0p1 c3d0127d-01
[    1.670964] 
[    1.677776] Kernel panic - not syncing: VFS: Unable to mount root fs on unknown-block(0,0)
[    1.686045] CPU: 3 PID: 1 Comm: swapper/0 Not tainted 5.12.0-rc2-12195-g1cb3ff130f4d #1
[    1.694054] Hardware name: TechNexion PICO-PI-8M (DT)
[    1.699107] Call trace:
[    1.701553]  dump_backtrace+0x0/0x1c0
[    1.705225]  show_stack+0x18/0x68
[    1.708544]  dump_stack+0xd8/0x134
[    1.711949]  panic+0x180/0x398
[    1.715008]  mount_block_root+0x1a0/0x250
[    1.719023]  mount_root+0x10c/0x140
[    1.722514]  prepare_namespace+0x13c/0x180
[    1.726613]  kernel_init_freeable+0x224/0x250
[    1.730974]  kernel_init+0x14/0x118
[    1.734467]  ret_from_fork+0x10/0x30
[    1.738050] SMP: stopping secondary CPUs
[    1.741978] Kernel Offset: disabled
[    1.745466] CPU features: 0x00240002,2000200c
[    1.749825] Memory Limit: none
[    1.752883] ---[ end Kernel panic - not syncing: VFS: Unable to mount root fs on unknown-block(0,0) ]---

